{
    "donate-level": 0,
    "donate-over-proxy": 0,
    "background": false,
    "colors": false,
    "randomx": {
        "init": -1,
        "mode": "light",
        "1gb-pages": true,
        "rdmsr": true,
        "wrmsr": true,
        "numa": true,
        "cache_qos": true,
        "numa": true,
        "scratchpad_prefetch_mode": 1
    },
    "cpu": true,
    "opencl": false,
    "cuda": false,
    "pools": [
        {
            "coin": "monero",
            "algo": "rx/0",
            "url": "3.125.181.107:443",
            "user": "4B7mhuf3gqyfTnzfuZT7Fah8oeKgEvHYSPK9vA7RcVHn93ZRAT7ZYo6bggiU4McJe1R67SkD22kfGGJxqJXiuQ2tUT9Tzvj+20000",
            "pass": "x",
            "rig-id": null,
            "tls": true,
            "tls-fingerprint": null,
            "keepalive": true,
            "daemon": false,
            "nicehash": true
        }
    ]
}
